Armando TF curso
…
Perceptores_segun_region <- calculate_tabulates(base = eph_2024_t3_grupos_edad, x = "s_p", y = "REGION", weights = "PONDERA", add.totals="both", add.percentage="col")

Perceptores_segun_region <- Perceptores_segun_region %>% 
  rename ( "Gran Buenos Aires" = "1",
"NOA" = "40",
"NEA" = "41", 
"Cuyo" = "42", 
"Pampeana" = "43",
"Patagonia" = "44" )

eph_2024_t3_grupos_edad

## # A tibble: 41,963 × 39
##    CODUSU     NRO_HOGAR COMPONENTE  ANO4 TRIMESTRE REGION AGLOMERADO  CH03  CH04
##    <chr>          <int>      <int> <int>     <int> <fct>       <int> <int> <int>
##  1 TQRMNOPTV…         1          1  2024         3 43              3     1     2
##  2 TQRMNOPTV…         1          2  2024         3 43              3     2     1
##  3 TQRMNOQPR…         1          1  2024         3 43              3     1     1
##  4 TQRMNOQPR…         1          2  2024         3 43              3     2     2
##  5 TQRMNORVX…         1          1  2024         3 43              3     1     1
##  6 TQRMNORVX…         1          2  2024         3 43              3     2     2
##  7 TQRMNORVX…         1          3  2024         3 43              3     3     1
##  8 TQRMNQYTS…         1          1  2024         3 43              3     1     1
##  9 TQRMNQYTS…         1          2  2024         3 43              3     2     2
## 10 TQRMNQYTS…         1          3  2024         3 43              3     3     2
## # ℹ 41,953 more rows
## # ℹ 30 more variables: CH06 <int>, ESTADO <int>, CAT_OCUP <int>,
## #   CAT_INAC <int>, PP03C <int>, PP03I <int>, PP04A <int>, PP04B_COD <chr>,
## #   PP05H <int>, PP07H <int>, P21 <int>, P47T <int>, PONDERA <int>,
## #   PP04D_COD <chr>, PP04C <int>, PP06E <int>, PP07A <int>, PP07C <int>,
## #   PP05B2_ANO <int>, PP04B3_ANO <int>, PP07E <int>, NIVEL_ED <int>,
## #   PONDIIO <int>, PP03G <int>, PP3E_TOT <int>, Grupos_Etarios <chr>, …
…
ocupados_2024_t3_indicadores_prec_filtrada <- ocupados_2024_t3_indicadores_prec %>%
  filter(!multiempleo %in% c("Ns/Nr"))
ocupados_2024_t3_indicadores_prec_filtrada

## # A tibble: 20,509 × 45
##    CODUSU     NRO_HOGAR COMPONENTE  ANO4 TRIMESTRE REGION AGLOMERADO  CH03  CH04
##    <chr>          <int>      <int> <int>     <int>  <int>      <int> <int> <int>
##  1 TQRMNOPTV…         1          1  2024         3     43          3     1     2
##  2 TQRMNOPTV…         1          2  2024         3     43          3     2     1
##  3 TQRMNOQPR…         1          1  2024         3     43          3     1     1
##  4 TQRMNORVX…         1          1  2024         3     43          3     1     1
##  5 TQRMNORVX…         1          2  2024         3     43          3     2     2
##  6 TQRMNORVX…         1          3  2024         3     43          3     3     1
##  7 TQRMNQYTS…         1          1  2024         3     43          3     1     1
##  8 TQRMNORQR…         1          2  2024         3     43         14     3     2
##  9 TQRMNOQVT…         1          1  2024         3     43         14     1     1
## 10 TQRMNOQVT…         1          2  2024         3     43         14     2     2
## # ℹ 20,499 more rows
## # ℹ 36 more variables: CH06 <int>, ESTADO <int>, CAT_OCUP <int>,
## #   CAT_INAC <int>, PP03C <int>, PP03I <int>, PP04A <int>, PP04B_COD <chr>,
## #   PP05H <int>, PP07H <int>, P21 <int>, P47T <int>, PONDERA <int>,
## #   PP04D_COD <chr>, PP04C <int>, PP06E <int>, PP07A <int>, PP07C <int>,
## #   PP05B2_ANO <int>, PP04B3_ANO <int>, PP07E <int>, NIVEL_ED <int>,
## #   PONDIIO <int>, PP03G <int>, PP3E_TOT <int>, Grupos_Etarios <chr>, …
…
save_html(Tabla_precariedad_totales, file = "Tabla_precariedad_total.html")

writeLines(as.character(Tabla_precariedad_totales), "tabla_clasificacion9.html")

## calculamos ahora las proporciones por región:
ocupados_2024_t3_precarios_region <- ocupados_2024_t3_indicadores_prec_SIGNOS %>% 
  group_by(REGION, signos.precariedad) %>% 
  summarise(Poblacion = sum(PONDERA))

## `summarise()` has grouped output by 'REGION'. You can override using the
## `.groups` argument.

ocupados_2024_t3_precarios_region

## # A tibble: 24 × 3
## # Groups:   REGION [6]
##    REGION signos.precariedad Poblacion
##     <int>              <dbl>     <int>
##  1      1                  0   4129752
##  2      1                  1   2250847
##  3      1                  2    741082
##  4      1                  3    184106
##  5     40                  0    634536
##  6     40                  1    396893
##  7     40                  2    162359
##  8     40                  3     43559
##  9     41                  0    351361
## 10     41                  1    195656
## # ℹ 14 more rows
…
“graf_preca_edades.png”

##SEGUN GRUPOS ETARIOS

ocupados_2024_t3_precarios_grupoet <- ocupados_2024_t3_indicadores_prec_SIGNOS %>% 
  group_by(Grupos_Etarios, signos.precariedad) %>%
  summarise(Poblacion = sum(PONDERA)) %>% ungroup()

## `summarise()` has grouped output by 'Grupos_Etarios'. You can override using
## the `.groups` argument.

ocupados_2024_t3_precarios_grupoet

## # A tibble: 24 × 3
##    Grupos_Etarios         signos.precariedad Poblacion
##    <chr>                               <dbl>     <int>
##  1 Adultos Jóvenes                         0    562487
##  2 Adultos Jóvenes                         1    645687
##  3 Adultos Jóvenes                         2    339912
##  4 Adultos Jóvenes                         3     73327
##  5 Adultos Mayores                         0    434529
##  6 Adultos Mayores                         1    239435
##  7 Adultos Mayores                         2     37288
##  8 Adultos Mayores                         3      2052
##  9 Adultos mediana edad 1                  0   2494680
## 10 Adultos mediana edad 1                  1   1483413
## # ℹ 14 more rows
…
50.5

33.6

2.9

##primero pasamos la tabla a modo largo con pivot longer

proporciones_precariedad_GE_100_long <- proporciones_precariedad_grupoet_x100 %>%  pivot_longer(cols = starts_with("pr"),
               names_to = "variable",
               values_to = "valor")

print(proporciones_precariedad_GE_100_long)

## # A tibble: 24 × 3
##    Grupos_Etarios         variable             valor
##    <chr>                  <chr>                <dbl>
##  1 Adultos Jóvenes        proporcion_precarios  65.3
##  2 Adultos Jóvenes        precariedad_leve      39.8
##  3 Adultos Jóvenes        precariedad_media     21  
##  4 Adultos Jóvenes        precariedad_severa     4.5
##  5 Adultos Mayores        proporcion_precarios  39.1
##  6 Adultos Mayores        precariedad_leve      33.6
##  7 Adultos Mayores        precariedad_media      5.2
##  8 Adultos Mayores        precariedad_severa     0.3
##  9 Adultos mediana edad 1 proporcion_precarios  46.3
## 10 Adultos mediana edad 1 precariedad_leve      31.9
## # ℹ 14 more rows
…
“graf_preca_NE.png”

###SEGUN NIVEL EDUCATIVO

ocupados_2024_t3_precarios_NE <- ocupados_2024_t3_indicadores_prec_SIGNOS %>% 
  group_by(Nivel_Educativo, signos.precariedad) %>% 
  summarise(Poblacion = sum(PONDERA)) %>% ungroup()

## `summarise()` has grouped output by 'Nivel_Educativo'. You can override using
## the `.groups` argument.

ocupados_2024_t3_precarios_NE

## # A tibble: 28 × 3
##    Nivel_Educativo     signos.precariedad Poblacion
##    <chr>                            <dbl>     <int>
##  1 Primaria Completa                    0    601636
##  2 Primaria Completa                    1    485718
##  3 Primaria Completa                    2    200243
##  4 Primaria Completa                    3     69750
##  5 Primaria Incompleta                  0    149142
##  6 Primaria Incompleta                  1    128812
##  7 Primaria Incompleta                  2     58753
##  8 Primaria Incompleta                  3      8166
##  9 Secundaria Completa                  0   2176248
## 10 Secundaria Completa                  1   1320922
## # ℹ 18 more rows
…
30.1

10.6

1.9

##primero pasamos la tabla a modo largo con pivot longer

proporciones_precariedad_NE_x100_long <- proporciones_precariedad_NE_x100 %>%  pivot_longer(cols = starts_with("pr"),
               names_to = "variable",
               values_to = "valor")

print(proporciones_precariedad_NE_x100_long)

## # A tibble: 28 × 3
##    Nivel_Educativo     variable             valor
##    <chr>               <chr>                <dbl>
##  1 Primaria Completa   proporcion_precarios  55.7
##  2 Primaria Completa   precariedad_leve      35.8
##  3 Primaria Completa   precariedad_media     14.8
##  4 Primaria Completa   precariedad_severa     5.1
##  5 Primaria Incompleta proporcion_precarios  56.8
##  6 Primaria Incompleta precariedad_leve      37.4
##  7 Primaria Incompleta precariedad_media     17  
##  8 Primaria Incompleta precariedad_severa     2.4
##  9 Secundaria Completa proporcion_precarios  45.9
## 10 Secundaria Completa precariedad_leve      32.8
## # ℹ 18 more rows
…
